{
    "_links": {
        "self": {
            "href": "http:\/\/default\/typography?_format=hal_json"
        },
        "type": {
            "href": "http:\/\/drupal.org\/rest\/type\/node\/system_page"
        },
        "http:\/\/drupal.org\/rest\/relation\/node\/system_page\/revision_uid": [
            {
                "href": "http:\/\/default\/adminsite?_format=hal_json"
            }
        ],
        "http:\/\/drupal.org\/rest\/relation\/node\/system_page\/uid": [
            {
                "href": "http:\/\/default\/adminsite?_format=hal_json",
                "lang": "en"
            }
        ]
    },
    "nid": [
        {
            "value": 6
        }
    ],
    "uuid": [
        {
            "value": "49a45d4d-9671-4972-856c-acf3c3388558"
        }
    ],
    "vid": [
        {
            "value": 6
        }
    ],
    "langcode": [
        {
            "value": "en",
            "lang": "en"
        }
    ],
    "type": [
        {
            "target_id": "system_page"
        }
    ],
    "revision_timestamp": [
        {
            "value": "2019-08-27T17:39:45+00:00",
            "format": "Y-m-d\\TH:i:sP"
        }
    ],
    "_embedded": {
        "http:\/\/drupal.org\/rest\/relation\/node\/system_page\/revision_uid": [
            {
                "_links": {
                    "self": {
                        "href": "http:\/\/default\/adminsite?_format=hal_json"
                    },
                    "type": {
                        "href": "http:\/\/drupal.org\/rest\/type\/user\/user"
                    }
                },
                "uuid": [
                    {
                        "value": "41c503f9-0945-4029-9169-d8bf4e243e14"
                    }
                ]
            }
        ],
        "http:\/\/drupal.org\/rest\/relation\/node\/system_page\/uid": [
            {
                "_links": {
                    "self": {
                        "href": "http:\/\/default\/adminsite?_format=hal_json"
                    },
                    "type": {
                        "href": "http:\/\/drupal.org\/rest\/type\/user\/user"
                    }
                },
                "uuid": [
                    {
                        "value": "41c503f9-0945-4029-9169-d8bf4e243e14"
                    }
                ],
                "lang": "en"
            }
        ]
    },
    "status": [
        {
            "value": true,
            "lang": "en"
        }
    ],
    "title": [
        {
            "value": "Typography",
            "lang": "en"
        }
    ],
    "created": [
        {
            "value": "2019-08-27T17:39:33+00:00",
            "lang": "en",
            "format": "Y-m-d\\TH:i:sP"
        }
    ],
    "changed": [
        {
            "value": "2019-09-22T15:25:19+00:00",
            "lang": "en",
            "format": "Y-m-d\\TH:i:sP"
        }
    ],
    "promote": [
        {
            "value": false,
            "lang": "en"
        }
    ],
    "sticky": [
        {
            "value": false,
            "lang": "en"
        }
    ],
    "default_langcode": [
        {
            "value": true,
            "lang": "en"
        }
    ],
    "revision_translation_affected": [
        {
            "value": true,
            "lang": "en"
        }
    ],
    "metatag": [
        {
            "value": {
                "title": "Typography | ITCross Starter Kit",
                "canonical_url": "http:\/\/default\/typography",
                "description": "See also: \"Documentation and examples for Bootstrap typography\".\n\nHeadings:\n\nh1. Bootstrap heading\n\nh2. Bootstrap heading\n\nh3. Bootstrap heading\n\nh4. Bootstrap heading\n\nh5. Bootstrap heading\n\nh6. Bootstrap heading\n\n\u00a0\n\nCustomizing headings:\n\nFancy display heading With faded secondary text\n\n\u00a0"
            }
        }
    ],
    "path": [
        {
            "alias": "\/typography",
            "pid": 5,
            "langcode": "en",
            "lang": "en"
        }
    ],
    "body": [
        {
            "value": "<p>See also: \"<a href=\"https:\/\/getbootstrap.com\/docs\/4.0\/content\/typography\/\">Documentation and examples for Bootstrap typography<\/a>\".<\/p>\r\n\r\n<p class=\"text-light bg-dark text-center\">Headings:<\/p>\r\n\r\n<h1>h1. Bootstrap heading<\/h1>\r\n\r\n<h2>h2. Bootstrap heading<\/h2>\r\n\r\n<h3>h3. Bootstrap heading<\/h3>\r\n\r\n<h4>h4. Bootstrap heading<\/h4>\r\n\r\n<h5>h5. Bootstrap heading<\/h5>\r\n\r\n<h6>h6. Bootstrap heading<\/h6>\r\n\r\n<p>&nbsp;<\/p>\r\n\r\n<p class=\"text-light bg-dark text-center\">Customizing headings:<\/p>\r\n\r\n<h3>Fancy display heading <small class=\"text-muted\">With faded secondary text<\/small><\/h3>\r\n\r\n<p>&nbsp;<\/p>\r\n\r\n<p class=\"text-light bg-dark text-center\">Display headings:<\/p>\r\n\r\n<h1 class=\"display-1\">Display 1<\/h1>\r\n\r\n<h1 class=\"display-2\">Display 2<\/h1>\r\n\r\n<h1 class=\"display-3\">Display 3<\/h1>\r\n\r\n<h1 class=\"display-4\">Display 4<\/h1>\r\n\r\n<p>&nbsp;<\/p>\r\n\r\n<p class=\"text-light bg-dark text-center\">Lead:<\/p>\r\n\r\n<p class=\"lead\">Vivamus sagittis lacus vel augue laoreet rutrum faucibus dolor auctor. Duis mollis, est non commodo luctus.<\/p>\r\n\r\n<p>&nbsp;<\/p>\r\n\r\n<p class=\"text-light bg-dark text-center\">Inline text elements:<\/p>\r\n\r\n<p>You can use the mark tag to <mark>highlight<\/mark> text.<\/p>\r\n\r\n<p><del>This line of text is meant to be treated as deleted text.<\/del><\/p>\r\n\r\n<p><s>This line of text is meant to be treated as no longer accurate.<\/s><\/p>\r\n\r\n<p><ins>This line of text is meant to be treated as an addition to the document.<\/ins><\/p>\r\n\r\n<p><u>This line of text will render as underlined<\/u><\/p>\r\n\r\n<p><small>This line of text is meant to be treated as fine print.<\/small><\/p>\r\n\r\n<p><strong>This line rendered as bold text.<\/strong><\/p>\r\n\r\n<p><em>This line rendered as italicized text.<\/em><\/p>\r\n\r\n<p>&nbsp;<\/p>\r\n\r\n<p class=\"text-light bg-dark text-center\">Color text<\/p>\r\n\r\n<p class=\"text-primary\">.text-primary<\/p>\r\n\r\n<p class=\"text-secondary\">.text-secondary<\/p>\r\n\r\n<p class=\"text-success\">.text-success<\/p>\r\n\r\n<p class=\"text-danger\">.text-danger<\/p>\r\n\r\n<p class=\"text-warning\">.text-warning<\/p>\r\n\r\n<p class=\"text-info\">.text-info<\/p>\r\n\r\n<p class=\"text-light bg-dark\">.text-light<\/p>\r\n\r\n<p class=\"text-dark\">.text-dark<\/p>\r\n\r\n<p class=\"text-muted\">.text-muted<\/p>\r\n\r\n<p class=\"text-white bg-dark\">.text-white<\/p>\r\n\r\n<p>&nbsp;<\/p>\r\n\r\n<p class=\"text-light bg-dark text-center\">Color links<\/p>\r\n\r\n<p><a class=\"text-primary\" href=\"#\">Primary link<\/a><\/p>\r\n\r\n<p><a class=\"text-secondary\" href=\"#\">Secondary link<\/a><\/p>\r\n\r\n<p><a class=\"text-success\" href=\"#\">Success link<\/a><\/p>\r\n\r\n<p><a class=\"text-danger\" href=\"#\">Danger link<\/a><\/p>\r\n\r\n<p><a class=\"text-warning\" href=\"#\">Warning link<\/a><\/p>\r\n\r\n<p><a class=\"text-info\" href=\"#\">Info link<\/a><\/p>\r\n\r\n<p><a class=\"text-light bg-dark\" href=\"#\">Light link<\/a><\/p>\r\n\r\n<p><a class=\"text-dark\" href=\"#\">Dark link<\/a><\/p>\r\n\r\n<p><a class=\"text-muted\" href=\"#\">Muted link<\/a><\/p>\r\n\r\n<p><a class=\"text-white bg-dark\" href=\"#\">White link<\/a><\/p>\r\n\r\n<p>&nbsp;<\/p>\r\n\r\n<p class=\"text-light bg-dark text-center\">Background color<\/p>\r\n\r\n<div class=\"p-3 mb-2 bg-primary text-white\">.bg-primary<\/div>\r\n\r\n<div class=\"p-3 mb-2 bg-secondary text-white\">.bg-secondary<\/div>\r\n\r\n<div class=\"p-3 mb-2 bg-success text-white\">.bg-success<\/div>\r\n\r\n<div class=\"p-3 mb-2 bg-danger text-white\">.bg-danger<\/div>\r\n\r\n<div class=\"p-3 mb-2 bg-warning text-dark\">.bg-warning<\/div>\r\n\r\n<div class=\"p-3 mb-2 bg-info text-white\">.bg-info<\/div>\r\n\r\n<div class=\"p-3 mb-2 bg-light text-dark\">.bg-light<\/div>\r\n\r\n<div class=\"p-3 mb-2 bg-dark text-white\">.bg-dark<\/div>\r\n\r\n<div class=\"p-3 mb-2 bg-white text-dark\">.bg-white<\/div>\r\n\r\n<p>&nbsp;<\/p>\r\n\r\n<p class=\"text-light bg-dark text-center\">Abbreviations<\/p>\r\n\r\n<p><abbr title=\"attribute\">attr<\/abbr><\/p>\r\n\r\n<p><abbr class=\"initialism\" title=\"HyperText Markup Language\">HTML<\/abbr><\/p>\r\n\r\n<p>&nbsp;<\/p>\r\n\r\n<p class=\"text-light bg-dark text-center\">Blockquotes<\/p>\r\n\r\n<blockquote class=\"blockquote\">\r\n<p class=\"mb-0\">Lorem ipsum dolor sit amet, consectetur adipiscing elit. Integer posuere erat a ante.<\/p>\r\n<\/blockquote>\r\n\r\n<p>&nbsp;<\/p>\r\n\r\n<p class=\"text-light bg-dark text-center\">Naming a source<\/p>\r\n\r\n<blockquote class=\"blockquote\">\r\n<p class=\"mb-0\">Lorem ipsum dolor sit amet, consectetur adipiscing elit. Integer posuere erat a ante.<\/p>\r\n\r\n<footer class=\"blockquote-footer\">Someone famous in <cite title=\"Source Title\">Source Title<\/cite><\/footer>\r\n<\/blockquote>\r\n\r\n<p>&nbsp;<\/p>\r\n\r\n<p class=\"text-light bg-dark text-center\">Alignment<\/p>\r\n\r\n<blockquote class=\"blockquote text-center\">\r\n<p class=\"mb-0\">Lorem ipsum dolor sit amet, consectetur adipiscing elit. Integer posuere erat a ante.<\/p>\r\n\r\n<footer class=\"blockquote-footer\">Someone famous in <cite title=\"Source Title\">Source Title<\/cite><\/footer>\r\n<\/blockquote>\r\n\r\n<blockquote class=\"blockquote text-right\">\r\n<p class=\"mb-0\">Lorem ipsum dolor sit amet, consectetur adipiscing elit. Integer posuere erat a ante.<\/p>\r\n\r\n<footer class=\"blockquote-footer\">Someone famous in <cite title=\"Source Title\">Source Title<\/cite><\/footer>\r\n<\/blockquote>\r\n\r\n<p>&nbsp;<\/p>\r\n\r\n<p class=\"text-light bg-dark text-center\">Lists Unstyled<\/p>\r\n\r\n<ul class=\"list-unstyled\">\r\n\t<li>Lorem ipsum dolor sit amet<\/li>\r\n\t<li>Consectetur adipiscing elit<\/li>\r\n\t<li>Integer molestie lorem at massa<\/li>\r\n\t<li>Facilisis in pretium nisl aliquet<\/li>\r\n\t<li>Nulla volutpat aliquam velit\r\n\t<ul>\r\n\t\t<li>Phasellus iaculis neque<\/li>\r\n\t\t<li>Purus sodales ultricies<\/li>\r\n\t\t<li>Vestibulum laoreet porttitor sem<\/li>\r\n\t\t<li>Ac tristique libero volutpat at<\/li>\r\n\t<\/ul>\r\n\t<\/li>\r\n\t<li>Faucibus porta lacus fringilla vel<\/li>\r\n\t<li>Aenean sit amet erat nunc<\/li>\r\n\t<li>Eget porttitor lorem<\/li>\r\n<\/ul>\r\n\r\n<p>&nbsp;<\/p>\r\n\r\n<p class=\"text-light bg-dark text-center\">Lists Inline<\/p>\r\n\r\n<ul class=\"list-inline\">\r\n\t<li class=\"list-inline-item\">Lorem ipsum<\/li>\r\n\t<li class=\"list-inline-item\">Phasellus iaculis<\/li>\r\n\t<li class=\"list-inline-item\">Nulla volutpat<\/li>\r\n<\/ul>\r\n\r\n<p>&nbsp;<\/p>\r\n\r\n<p class=\"text-light bg-dark text-center\">Description list alignment<\/p>\r\n\r\n<dl class=\"row\">\r\n\t<dt class=\"col-sm-3\">Description lists<\/dt>\r\n\t<dd class=\"col-sm-9\">A description list is perfect for defining terms.<\/dd>\r\n\t<dt class=\"col-sm-3\">Euismod<\/dt>\r\n\t<dd class=\"col-sm-9\">\r\n\t<p>Vestibulum id ligula porta felis euismod semper eget lacinia odio sem nec elit.<\/p>\r\n\r\n\t<p>Donec id elit non mi porta gravida at eget metus.<\/p>\r\n\t<\/dd>\r\n\t<dt class=\"col-sm-3\">Malesuada porta<\/dt>\r\n\t<dd class=\"col-sm-9\">Etiam porta sem malesuada magna mollis euismod.<\/dd>\r\n\t<dt class=\"col-sm-3 text-truncate\">Truncated term is truncated<\/dt>\r\n\t<dd class=\"col-sm-9\">Fusce dapibus, tellus ac cursus commodo, tortor mauris condimentum nibh, ut fermentum massa justo sit amet risus.<\/dd>\r\n\t<dt class=\"col-sm-3\">Nesting<\/dt>\r\n\t<dd class=\"col-sm-9\">\r\n\t<dl class=\"row\">\r\n\t\t<dt class=\"col-sm-4\">Nested definition list<\/dt>\r\n\t\t<dd class=\"col-sm-8\">Aenean posuere, tortor sed cursus feugiat, nunc augue blandit nunc.<\/dd>\r\n\t<\/dl>\r\n\t<\/dd>\r\n<\/dl>\r\n",
            "format": "full_html",
            "processed": "<p>See also: \"<a href=\"https:\/\/getbootstrap.com\/docs\/4.0\/content\/typography\/\">Documentation and examples for Bootstrap typography<\/a>\".<\/p>\n\n<p class=\"text-light bg-dark text-center\">Headings:<\/p>\n\n<h1>h1. Bootstrap heading<\/h1>\n\n<h2>h2. Bootstrap heading<\/h2>\n\n<h3>h3. Bootstrap heading<\/h3>\n\n<h4>h4. Bootstrap heading<\/h4>\n\n<h5>h5. Bootstrap heading<\/h5>\n\n<h6>h6. Bootstrap heading<\/h6>\n\n<p>\u00a0<\/p>\n\n<p class=\"text-light bg-dark text-center\">Customizing headings:<\/p>\n\n<h3>Fancy display heading <small class=\"text-muted\">With faded secondary text<\/small><\/h3>\n\n<p>\u00a0<\/p>\n\n<p class=\"text-light bg-dark text-center\">Display headings:<\/p>\n\n<h1 class=\"display-1\">Display 1<\/h1>\n\n<h1 class=\"display-2\">Display 2<\/h1>\n\n<h1 class=\"display-3\">Display 3<\/h1>\n\n<h1 class=\"display-4\">Display 4<\/h1>\n\n<p>\u00a0<\/p>\n\n<p class=\"text-light bg-dark text-center\">Lead:<\/p>\n\n<p class=\"lead\">Vivamus sagittis lacus vel augue laoreet rutrum faucibus dolor auctor. Duis mollis, est non commodo luctus.<\/p>\n\n<p>\u00a0<\/p>\n\n<p class=\"text-light bg-dark text-center\">Inline text elements:<\/p>\n\n<p>You can use the mark tag to <mark>highlight<\/mark> text.<\/p>\n\n<p><del>This line of text is meant to be treated as deleted text.<\/del><\/p>\n\n<p><s>This line of text is meant to be treated as no longer accurate.<\/s><\/p>\n\n<p><ins>This line of text is meant to be treated as an addition to the document.<\/ins><\/p>\n\n<p><u>This line of text will render as underlined<\/u><\/p>\n\n<p><small>This line of text is meant to be treated as fine print.<\/small><\/p>\n\n<p><strong>This line rendered as bold text.<\/strong><\/p>\n\n<p><em>This line rendered as italicized text.<\/em><\/p>\n\n<p>\u00a0<\/p>\n\n<p class=\"text-light bg-dark text-center\">Color text<\/p>\n\n<p class=\"text-primary\">.text-primary<\/p>\n\n<p class=\"text-secondary\">.text-secondary<\/p>\n\n<p class=\"text-success\">.text-success<\/p>\n\n<p class=\"text-danger\">.text-danger<\/p>\n\n<p class=\"text-warning\">.text-warning<\/p>\n\n<p class=\"text-info\">.text-info<\/p>\n\n<p class=\"text-light bg-dark\">.text-light<\/p>\n\n<p class=\"text-dark\">.text-dark<\/p>\n\n<p class=\"text-muted\">.text-muted<\/p>\n\n<p class=\"text-white bg-dark\">.text-white<\/p>\n\n<p>\u00a0<\/p>\n\n<p class=\"text-light bg-dark text-center\">Color links<\/p>\n\n<p><a class=\"text-primary\" href=\"#\">Primary link<\/a><\/p>\n\n<p><a class=\"text-secondary\" href=\"#\">Secondary link<\/a><\/p>\n\n<p><a class=\"text-success\" href=\"#\">Success link<\/a><\/p>\n\n<p><a class=\"text-danger\" href=\"#\">Danger link<\/a><\/p>\n\n<p><a class=\"text-warning\" href=\"#\">Warning link<\/a><\/p>\n\n<p><a class=\"text-info\" href=\"#\">Info link<\/a><\/p>\n\n<p><a class=\"text-light bg-dark\" href=\"#\">Light link<\/a><\/p>\n\n<p><a class=\"text-dark\" href=\"#\">Dark link<\/a><\/p>\n\n<p><a class=\"text-muted\" href=\"#\">Muted link<\/a><\/p>\n\n<p><a class=\"text-white bg-dark\" href=\"#\">White link<\/a><\/p>\n\n<p>\u00a0<\/p>\n\n<p class=\"text-light bg-dark text-center\">Background color<\/p>\n\n<div class=\"p-3 mb-2 bg-primary text-white\">.bg-primary<\/div>\n\n<div class=\"p-3 mb-2 bg-secondary text-white\">.bg-secondary<\/div>\n\n<div class=\"p-3 mb-2 bg-success text-white\">.bg-success<\/div>\n\n<div class=\"p-3 mb-2 bg-danger text-white\">.bg-danger<\/div>\n\n<div class=\"p-3 mb-2 bg-warning text-dark\">.bg-warning<\/div>\n\n<div class=\"p-3 mb-2 bg-info text-white\">.bg-info<\/div>\n\n<div class=\"p-3 mb-2 bg-light text-dark\">.bg-light<\/div>\n\n<div class=\"p-3 mb-2 bg-dark text-white\">.bg-dark<\/div>\n\n<div class=\"p-3 mb-2 bg-white text-dark\">.bg-white<\/div>\n\n<p>\u00a0<\/p>\n\n<p class=\"text-light bg-dark text-center\">Abbreviations<\/p>\n\n<p><abbr title=\"attribute\">attr<\/abbr><\/p>\n\n<p><abbr class=\"initialism\" title=\"HyperText Markup Language\">HTML<\/abbr><\/p>\n\n<p>\u00a0<\/p>\n\n<p class=\"text-light bg-dark text-center\">Blockquotes<\/p>\n\n<blockquote class=\"blockquote\">\n<p class=\"mb-0\">Lorem ipsum dolor sit amet, consectetur adipiscing elit. Integer posuere erat a ante.<\/p>\n<\/blockquote>\n\n<p>\u00a0<\/p>\n\n<p class=\"text-light bg-dark text-center\">Naming a source<\/p>\n\n<blockquote class=\"blockquote\">\n<p class=\"mb-0\">Lorem ipsum dolor sit amet, consectetur adipiscing elit. Integer posuere erat a ante.<\/p>\n\n<footer class=\"blockquote-footer\">Someone famous in <cite title=\"Source Title\">Source Title<\/cite><\/footer><\/blockquote>\n\n<p>\u00a0<\/p>\n\n<p class=\"text-light bg-dark text-center\">Alignment<\/p>\n\n<blockquote class=\"blockquote text-center\">\n<p class=\"mb-0\">Lorem ipsum dolor sit amet, consectetur adipiscing elit. Integer posuere erat a ante.<\/p>\n\n<footer class=\"blockquote-footer\">Someone famous in <cite title=\"Source Title\">Source Title<\/cite><\/footer><\/blockquote>\n\n<blockquote class=\"blockquote text-right\">\n<p class=\"mb-0\">Lorem ipsum dolor sit amet, consectetur adipiscing elit. Integer posuere erat a ante.<\/p>\n\n<footer class=\"blockquote-footer\">Someone famous in <cite title=\"Source Title\">Source Title<\/cite><\/footer><\/blockquote>\n\n<p>\u00a0<\/p>\n\n<p class=\"text-light bg-dark text-center\">Lists Unstyled<\/p>\n\n<ul class=\"list-unstyled\"><li>Lorem ipsum dolor sit amet<\/li>\n\t<li>Consectetur adipiscing elit<\/li>\n\t<li>Integer molestie lorem at massa<\/li>\n\t<li>Facilisis in pretium nisl aliquet<\/li>\n\t<li>Nulla volutpat aliquam velit\n\t<ul><li>Phasellus iaculis neque<\/li>\n\t\t<li>Purus sodales ultricies<\/li>\n\t\t<li>Vestibulum laoreet porttitor sem<\/li>\n\t\t<li>Ac tristique libero volutpat at<\/li>\n\t<\/ul><\/li>\n\t<li>Faucibus porta lacus fringilla vel<\/li>\n\t<li>Aenean sit amet erat nunc<\/li>\n\t<li>Eget porttitor lorem<\/li>\n<\/ul><p>\u00a0<\/p>\n\n<p class=\"text-light bg-dark text-center\">Lists Inline<\/p>\n\n<ul class=\"list-inline\"><li class=\"list-inline-item\">Lorem ipsum<\/li>\n\t<li class=\"list-inline-item\">Phasellus iaculis<\/li>\n\t<li class=\"list-inline-item\">Nulla volutpat<\/li>\n<\/ul><p>\u00a0<\/p>\n\n<p class=\"text-light bg-dark text-center\">Description list alignment<\/p>\n\n<dl class=\"row\"><dt class=\"col-sm-3\">Description lists<\/dt>\n\t<dd class=\"col-sm-9\">A description list is perfect for defining terms.<\/dd>\n\t<dt class=\"col-sm-3\">Euismod<\/dt>\n\t<dd class=\"col-sm-9\">\n\t<p>Vestibulum id ligula porta felis euismod semper eget lacinia odio sem nec elit.<\/p>\n\n\t<p>Donec id elit non mi porta gravida at eget metus.<\/p>\n\t<\/dd>\n\t<dt class=\"col-sm-3\">Malesuada porta<\/dt>\n\t<dd class=\"col-sm-9\">Etiam porta sem malesuada magna mollis euismod.<\/dd>\n\t<dt class=\"col-sm-3 text-truncate\">Truncated term is truncated<\/dt>\n\t<dd class=\"col-sm-9\">Fusce dapibus, tellus ac cursus commodo, tortor mauris condimentum nibh, ut fermentum massa justo sit amet risus.<\/dd>\n\t<dt class=\"col-sm-3\">Nesting<\/dt>\n\t<dd class=\"col-sm-9\">\n\t<dl class=\"row\"><dt class=\"col-sm-4\">Nested definition list<\/dt>\n\t\t<dd class=\"col-sm-8\">Aenean posuere, tortor sed cursus feugiat, nunc augue blandit nunc.<\/dd>\n\t<\/dl><\/dd>\n<\/dl>",
            "summary": "",
            "lang": "en"
        }
    ]
}